Analise_ED.Caso_estudo_vendas_jogos
…
## Selecting by Revenue

  jp<-dts%>% 
  group_by(Year, Genre) %>% 
  summarize(Revenue = sum(JP_Sales)) %>%
  top_n(1)

## Selecting by Revenue

  global

## # A tibble: 40 x 3
## # Groups:   Year [40]
##    Year  Genre    Revenue
##    <ord> <fct>      <dbl>
##  1 1980  Shooter     7.07
##  2 1981  Action     14.8 
##  3 1982  Puzzle     10.0 
##  4 1983  Platform    6.93
##  5 1984  Shooter    31.1 
##  6 1985  Platform   43.2 
##  7 1986  Action     13.7 
##  8 1987  Fighting    5.42
##  9 1988  Platform   27.7 
## 10 1989  Puzzle     37.8 
## # ... with 30 more rows

  jp

## # A tibble: 56 x 3
## # Groups:   Year [40]
##    Year  Genre    Revenue
##    <ord> <fct>      <dbl>
##  1 1980  Action         0
##  2 1980  Fighting       0
##  3 1980  Misc           0
##  4 1980  Shooter        0
##  5 1980  Sports         0
##  6 1981  Action         0
##  7 1981  Platform       0
##  8 1981  Puzzle         0
##  9 1981  Racing         0
## 10 1981  Shooter        0
## # ... with 46 more rows
…
